{
    "arm": {
        "ansible-language-server-macos": {
            "name": "ansible-language-server-macos",
            "sha256": "f20dc31f316251701abdd59729771606dce5e4e5363a607e8c721d330d1b9f94"
        },
        "docker-compose-langserver-macos": {
            "name": "docker-compose-langserver-macos",
            "sha256": "c1cd09255ccaf3985df6003c2cac668f1662681c876576d449c55a28c86a083e"
        },
        "docker-langserver-macos": {
            "name": "docker-langserver-macos",
            "sha256": "0d8c1102c05acb2f54f02e0c63a67212b16887fcbf5e01ca7c93738c05b40900"
        }
    },
    "i386": {
        "ansible-language-server-macos": {
            "name": "ansible-language-server-macos",
            "sha256": "4358847309f71bb8dfbaabac31f42823e2acb5582c82c8cb0e7aa7a1e5762917"
        },
        "docker-compose-langserver-macos": {
            "name": "docker-compose-langserver-macos",
            "sha256": "867370892d917be016944229fd4036524766a1075ab85c4ca24bc21ac4ecc7df"
        },
        "docker-langserver-macos": {
            "name": "docker-langserver-macos",
            "sha256": "e32f2fff877e4b60df735bc15eb6593bc9df6748a47396cccaf7d391d04b4472"
        }
    }
}